{
    "/css/tema_a/material-dashboard.css": "/css/tema_a/material-dashboard.css?id=f117457bc80289fed117",
    "/css/tema_b/material-dashboard.css": "/css/tema_b/material-dashboard.css?id=d2dd4ae35abfd65932ca",
    "/js/start.js": "/js/start.js?id=7455574f9d02398691b7",
    "/css/login-a.css": "/css/login-a.css?id=0cbac74c6090dcaca2ef",
    "/css/login-b.css": "/css/login-b.css?id=daa3cdede0ff95d8b595",
    "/js/login.js": "/js/login.js?id=b21af3c74d8f9a03b982",
    "/css/app-a.css": "/css/app-a.css?id=469dbfb961425ce7e7fb",
    "/css/app-b.css": "/css/app-b.css?id=780a44aca5b7c3b4217e",
    "/js/libraries.js": "/js/libraries.js?id=20e2f5163f61768e5781",
    "/js/app.js": "/js/app.js?id=f732218c9f1009e5cd6d",
    "/fonts/glyphicons-halflings-regular.eot": "/fonts/glyphicons-halflings-regular.eot?id=77ff91d7fa0317186a8e",
    "/fonts/glyphicons-halflings-regular.svg": "/fonts/glyphicons-halflings-regular.svg?id=89889688147bd7575d63",
    "/fonts/glyphicons-halflings-regular.ttf": "/fonts/glyphicons-halflings-regular.ttf?id=3abf0f95c0a69984006e",
    "/fonts/glyphicons-halflings-regular.woff": "/fonts/glyphicons-halflings-regular.woff?id=f04acf366f6a53177950",
    "/fonts/glyphicons-halflings-regular.woff2": "/fonts/glyphicons-halflings-regular.woff2?id=349344e92fb16221dd56",
    "/fonts/materialdesignicons-webfont.eot": "/fonts/materialdesignicons-webfont.eot?id=33efa952999486b33502",
    "/fonts/materialdesignicons-webfont.ttf": "/fonts/materialdesignicons-webfont.ttf?id=5e8b70529492433fc7cc",
    "/fonts/materialdesignicons-webfont.woff": "/fonts/materialdesignicons-webfont.woff?id=ca249170afcaaed88249",
    "/fonts/materialdesignicons-webfont.woff2": "/fonts/materialdesignicons-webfont.woff2?id=68ec212ca4b823869abb"
}
